sim/waveform.vcd
$timescale
 1ps
$end

$scope module _vcs_unit__1989571668 $end
$comment Unit is _vcs_unit__1989571668 $end
$upscope $end

$scope module top $end
$comment Unit is _vcs_unit__1989571668 $end
$var reg        1 "    clk $end

$scope module IFC $end
$comment Unit is _vcs_unit__1989571668 $end
$var reg        1 "    clk $end
$var reg        1 #    ld $end
$var reg      128 $    key [127:0] $end
$var reg      128 %    text_in [127:0] $end
$var reg        1 &    done $end
$var reg      128 '    text_out [127:0] $end
$var reg        1 (    rst $end

$scope begin cb $end
$var reg        1 )    rst $end
$var reg        1 *    ld $end
$var reg      128 +    key [127:0] $end
$var reg      128 ,    text_in [127:0] $end
$var reg        1 -    done $end
$var reg      128 .    text_out [127:0] $end
$upscope $end

$scope fork dut $end
$var reg        1 "    clk $end
$var reg        1 (    rst $end
$var reg      128 $    key [127:0] $end
$var reg      128 %    text_in [127:0] $end
$var reg        1 #    ld $end
$var reg      128 '    text_out [127:0] $end
$var reg        1 &    done $end
$upscope $end

$scope fork bench $end
$upscope $end
$upscope $end

$scope module dut $end
$comment Unit is _vcs_unit__1989571668 $end
$comment Port d refers to top.IFC.dut $end

$scope module cipher $end
$comment Unit is _vcs_unit__1989571668 $end
$var wire       1 /    clk $end
$var wire       1 0    rst $end
$var wire       1 1    ld $end
$var reg        1 2    done $end
$var wire     128 3    key [127:0] $end
$var wire     128 4    text_in [127:0] $end
$var reg      128 5    text_out [127:0] $end
$var wire      32 6    w0 [31:0] $end
$var wire      32 7    w1 [31:0] $end
$var wire      32 8    w2 [31:0] $end
$var wire      32 9    w3 [31:0] $end
$var reg      128 :    text_in_r [127:0] $end
$var reg        8 ;    sa00 [7:0] $end
$var reg        8 <    sa01 [7:0] $end
$var reg        8 =    sa02 [7:0] $end
$var reg        8 >    sa03 [7:0] $end
$var reg        8 ?    sa10 [7:0] $end
$var reg        8 @    sa11 [7:0] $end
$var reg        8 A    sa12 [7:0] $end
$var reg        8 B    sa13 [7:0] $end
$var reg        8 C    sa20 [7:0] $end
$var reg        8 D    sa21 [7:0] $end
$var reg        8 E    sa22 [7:0] $end
$var reg        8 F    sa23 [7:0] $end
$var reg        8 G    sa30 [7:0] $end
$var reg        8 H    sa31 [7:0] $end
$var reg        8 I    sa32 [7:0] $end
$var reg        8 J    sa33 [7:0] $end
$var wire       8 K    sa00_next [7:0] $end
$var wire       8 L    sa01_next [7:0] $end
$var wire       8 M    sa02_next [7:0] $end
$var wire       8 N    sa03_next [7:0] $end
$var wire       8 O    sa10_next [7:0] $end
$var wire       8 P    sa11_next [7:0] $end
$var wire       8 Q    sa12_next [7:0] $end
$var wire       8 R    sa13_next [7:0] $end
$var wire       8 S    sa20_next [7:0] $end
$var wire       8 T    sa21_next [7:0] $end
$var wire       8 U    sa22_next [7:0] $end
$var wire       8 V    sa23_next [7:0] $end
$var wire       8 W    sa30_next [7:0] $end
$var wire       8 X    sa31_next [7:0] $end
$var wire       8 Y    sa32_next [7:0] $end
$var wire       8 Z    sa33_next [7:0] $end
$var wire       8 [    sa00_sub [7:0] $end
$var wire       8 \    sa01_sub [7:0] $end
$var wire       8 ]    sa02_sub [7:0] $end
$var wire       8 ^    sa03_sub [7:0] $end
$var wire       8 _    sa10_sub [7:0] $end
$var wire       8 `    sa11_sub [7:0] $end
$var wire       8 a    sa12_sub [7:0] $end
$var wire       8 b    sa13_sub [7:0] $end
$var wire       8 c    sa20_sub [7:0] $end
$var wire       8 d    sa21_sub [7:0] $end
$var wire       8 e    sa22_sub [7:0] $end
$var wire       8 f    sa23_sub [7:0] $end
$var wire       8 g    sa30_sub [7:0] $end
$var wire       8 h    sa31_sub [7:0] $end
$var wire       8 i    sa32_sub [7:0] $end
$var wire       8 j    sa33_sub [7:0] $end
$var wire       8 [    sa00_sr [7:0] $end
$var wire       8 \    sa01_sr [7:0] $end
$var wire       8 ]    sa02_sr [7:0] $end
$var wire       8 ^    sa03_sr [7:0] $end
$var wire       8 `    sa10_sr [7:0] $end
$var wire       8 a    sa11_sr [7:0] $end
$var wire       8 b    sa12_sr [7:0] $end
$var wire       8 _    sa13_sr [7:0] $end
$var wire       8 e    sa20_sr [7:0] $end
$var wire       8 f    sa21_sr [7:0] $end
$var wire       8 c    sa22_sr [7:0] $end
$var wire       8 d    sa23_sr [7:0] $end
$var wire       8 j    sa30_sr [7:0] $end
$var wire       8 g    sa31_sr [7:0] $end
$var wire       8 h    sa32_sr [7:0] $end
$var wire       8 i    sa33_sr [7:0] $end
$var wire       8 k    sa00_mc [7:0] $end
$var wire       8 l    sa01_mc [7:0] $end
$var wire       8 m    sa02_mc [7:0] $end
$var wire       8 n    sa03_mc [7:0] $end
$var wire       8 o    sa10_mc [7:0] $end
$var wire       8 p    sa11_mc [7:0] $end
$var wire       8 q    sa12_mc [7:0] $end
$var wire       8 r    sa13_mc [7:0] $end
$var wire       8 s    sa20_mc [7:0] $end
$var wire       8 t    sa21_mc [7:0] $end
$var wire       8 u    sa22_mc [7:0] $end
$var wire       8 v    sa23_mc [7:0] $end
$var wire       8 w    sa30_mc [7:0] $end
$var wire       8 x    sa31_mc [7:0] $end
$var wire       8 y    sa32_mc [7:0] $end
$var wire       8 z    sa33_mc [7:0] $end
$var reg        1 {    ld_r $end
$var reg        4 |    dcnt [3:0] $end

$scope function mix_col $end
$var reg       32 }    mix_col [31:0] $end
$var reg        8 ~    s0 [7:0] $end
$var reg        8 !"   s1 [7:0] $end
$var reg        8 ""   s2 [7:0] $end
$var reg        8 #"   s3 [7:0] $end
$var reg        8 $"   s0_o [7:0] $end
$var reg        8 %"   s1_o [7:0] $end
$var reg        8 &"   s2_o [7:0] $end
$var reg        8 '"   s3_o [7:0] $end
$upscope $end

$scope function xtime $end
$var reg        8 ("   xtime [7:0] $end
$var reg        8 )"   b [7:0] $end
$upscope $end

$scope module u0 $end
$comment Unit is _vcs_unit__1989571668 $end
$var wire       1 /    clk $end
$var wire       1 1    kld $end
$var wire     128 3    key [127:0] $end
$var wire      32 6    wo_0 [31:0] $end
$var wire      32 7    wo_1 [31:0] $end
$var wire      32 8    wo_2 [31:0] $end
$var wire      32 9    wo_3 [31:0] $end
$var wire      32 *"   tmp_w [31:0] $end
$var wire      32 +"   subword [31:0] $end
$var wire      32 ,"   rcon [31:0] $end

$scope module u0 $end
$comment Unit is _vcs_unit__1989571668 $end
$var wire       8 -"   a [7:0] $end
$var reg        8 ."   d [7:0] $end
$upscope $end

$scope module u1 $end
$comment Unit is _vcs_unit__1989571668 $end
$var wire       8 /"   a [7:0] $end
$var reg        8 0"   d [7:0] $end
$upscope $end

$scope module u2 $end
$comment Unit is _vcs_unit__1989571668 $end
$var wire       8 1"   a [7:0] $end
$var reg        8 2"   d [7:0] $end
$upscope $end

$scope module u3 $end
$comment Unit is _vcs_unit__1989571668 $end
$var wire       8 3"   a [7:0] $end
$var reg        8 4"   d [7:0] $end
$upscope $end

$scope module r0 $end
$comment Unit is _vcs_unit__1989571668 $end
$var wire       1 /    clk $end
$var wire       1 1    kld $end
$var reg       32 5"   out [31:0] $end
$var reg        4 6"   rcnt [3:0] $end
$var wire       4 7"   rcnt_next [3:0] $end

$scope function frcon $end
$var reg       32 8"   frcon [31:0] $end
$var reg        4 9"   i [3:0] $end
$upscope $end
$upscope $end
$upscope $end

$scope module us00 $end
$comment Unit is _vcs_unit__1989571668 $end
$var wire       8 :"   a [7:0] $end
$var reg        8 ;"   d [7:0] $end
$upscope $end

$scope module us01 $end
$comment Unit is _vcs_unit__1989571668 $end
$var wire       8 <"   a [7:0] $end
$var reg        8 ="   d [7:0] $end
$upscope $end

$scope module us02 $end
$comment Unit is _vcs_unit__1989571668 $end
$var wire       8 >"   a [7:0] $end
$var reg        8 ?"   d [7:0] $end
$upscope $end

$scope module us03 $end
$comment Unit is _vcs_unit__1989571668 $end
$var wire       8 @"   a [7:0] $end
$var reg        8 A"   d [7:0] $end
$upscope $end

$scope module us10 $end
$comment Unit is _vcs_unit__1989571668 $end
$var wire       8 B"   a [7:0] $end
$var reg        8 C"   d [7:0] $end
$upscope $end

$scope module us11 $end
$comment Unit is _vcs_unit__1989571668 $end
$var wire       8 D"   a [7:0] $end
$var reg        8 E"   d [7:0] $end
$upscope $end

$scope module us12 $end
$comment Unit is _vcs_unit__1989571668 $end
$var wire       8 F"   a [7:0] $end
$var reg        8 G"   d [7:0] $end
$upscope $end

$scope module us13 $end
$comment Unit is _vcs_unit__1989571668 $end
$var wire       8 H"   a [7:0] $end
$var reg        8 I"   d [7:0] $end
$upscope $end

$scope module us20 $end
$comment Unit is _vcs_unit__1989571668 $end
$var wire       8 J"   a [7:0] $end
$var reg        8 K"   d [7:0] $end
$upscope $end

$scope module us21 $end
$comment Unit is _vcs_unit__1989571668 $end
$var wire       8 L"   a [7:0] $end
$var reg        8 M"   d [7:0] $end
$upscope $end

$scope module us22 $end
$comment Unit is _vcs_unit__1989571668 $end
$var wire       8 N"   a [7:0] $end
$var reg        8 O"   d [7:0] $end
$upscope $end

$scope module us23 $end
$comment Unit is _vcs_unit__1989571668 $end
$var wire       8 P"   a [7:0] $end
$var reg        8 Q"   d [7:0] $end
$upscope $end

$scope module us30 $end
$comment Unit is _vcs_unit__1989571668 $end
$var wire       8 R"   a [7:0] $end
$var reg        8 S"   d [7:0] $end
$upscope $end

$scope module us31 $end
$comment Unit is _vcs_unit__1989571668 $end
$var wire       8 T"   a [7:0] $end
$var reg        8 U"   d [7:0] $end
$upscope $end

$scope module us32 $end
$comment Unit is _vcs_unit__1989571668 $end
$var wire       8 V"   a [7:0] $end
$var reg        8 W"   d [7:0] $end
$upscope $end

$scope module us33 $end
$comment Unit is _vcs_unit__1989571668 $end
$var wire       8 X"   a [7:0] $end
$var reg        8 Y"   d [7:0] $end
$upscope $end
$upscope $end
$upscope $end

$scope module test_bench_top $end
$comment Unit is _vcs_unit__1989571668 $end
$comment Port ds refers to top.IFC.bench $end
$var reg        1 Z"   id_t $end
$var integer   32 ["   temp [31:0] $end

$scope begin unnamed$$_9 $end
$upscope $end

$scope begin unnamed$$_11 $end

$scope begin unnamed$$_10 $end
$upscope $end
$upscope $end
$upscope $end
$upscope $end
$enddefinitions $end
#0
$dumpvars
bxxxxxxxx Q"
bxxxxxxxx b
bxxxxxxxx F"
bxxxxxxxx W
bxxxxxxxx ;"
bxxxxxxxx L
bxxxxxxxx 0"
bxxxxxxxx A
bxxxxxxxx %"
bxxxxxxxxxxxxxxxxxxxxxxxxxxxxxxxx 6
bxxxxxxxx x
b00000000000000000000000000000000000000000000000000000000000000000000000000000000000000000000000000000000000000000000000000000000 +
bxxxxxxxx m
bxxxxxxxx n
bxxxxxxxx R"
bxxxxxxxx c
bxxxxxxxx G"
bxxxxxxxx X
bxxxxxxxx <"
bxxxxxxxx M
bxxxxxxxx 1"
bxxxxxxxx B
bxxxxxxxx &"
bxxxxxxxxxxxxxxxxxxxxxxxxxxxxxxxx 7
bxxxxxxxx y
b00000000000000000000000000000000000000000000000000000000000000000000000000000000000000000000000000000000000000000000000000000000 ,
x-
bxxxxxxxx o
bxxxxxxxx S"
0"
bxxxxxxxx d
bxxxxxxxx H"
bxxxxxxxx Y
bxxxxxxxx ="
bxxxxxxxx N
bxxxxxxxx 2"
bxxxxxxxx C
bxxxxxxxx '"
bxxxxxxxxxxxxxxxxxxxxxxxxxxxxxxxx 8
bxxxxxxxx z
x{
bxxxxxxxxxxxxxxxxxxxxxxxxxxxxxxxxxxxxxxxxxxxxxxxxxxxxxxxxxxxxxxxxxxxxxxxxxxxxxxxxxxxxxxxxxxxxxxxxxxxxxxxxxxxxxxxxxxxxxxxxxxxxxxxx .
bxxxxxxxx p
bxxxxxxxx T"
x#
bxxxxxxxx e
bxxxxxxxx I"
bxxxxxxxx Z
bxxxxxxxx >"
bxxxxxxxx O
bxxxxxxxx 3"
bxxxxxxxx D
bxxxxxxxx ("
bxxxxxxxxxxxxxxxxxxxxxxxxxxxxxxxx 9
bxxxxxxxxxxxxxxxxxxxxxxxxxxxxxxxxxxxxxxxxxxxxxxxxxxxxxxxxxxxxxxxxxxxxxxxxxxxxxxxxxxxxxxxxxxxxxxxxxxxxxxxxxxxxxxxxxxxxxxxxxxxxxxxx :
bxxxx |
0/
bxxxxxxxx q
bxxxxxxxx U"
bxxxxxxxxxxxxxxxxxxxxxxxxxxxxxxxxxxxxxxxxxxxxxxxxxxxxxxxxxxxxxxxxxxxxxxxxxxxxxxxxxxxxxxxxxxxxxxxxxxxxxxxxxxxxxxxxxxxxxxxxxxxxxxxx $
bxxxxxxxx f
bxxxxxxxx J"
bxxxxxxxx [
bxxxxxxxx ?"
bxxxxxxxx P
bxxxxxxxx 4"
bxxxxxxxx E
bxxxxxxxx )"
bxxxxxxxxxxxxxxxxxxxxxxxxxxxxxxxx *"
bxxxxxxxx ;
bxxxxxxxxxxxxxxxxxxxxxxxxxxxxxxxx }
x0
bxxxxxxxx r
bxxxxxxxx V"
bxxxxxxxxxxxxxxxxxxxxxxxxxxxxxxxxxxxxxxxxxxxxxxxxxxxxxxxxxxxxxxxxxxxxxxxxxxxxxxxxxxxxxxxxxxxxxxxxxxxxxxxxxxxxxxxxxxxxxxxxxxxxxxxx %
bxxxxxxxx g
bxxxxxxxx K"
bxxxxxxxx \
bxxxxxxxx @"
bxxxxxxxx Q
bxxxxxxxxxxxxxxxxxxxxxxxxxxxxxxxx 5"
bxxxxxxxx F
bxxxxxxxx G
bxxxxxxxxxxxxxxxxxxxxxxxxxxxxxxxx +"
bxxxxxxxx <
bxxxxxxxx ~
x1
bxxxxxxxx s
bxxxxxxxx W"
x&
bxxxxxxxx h
bxxxxxxxx L"
bxxxxxxxx ]
bxxxxxxxx A"
bxxxxxxxx R
bxxxx 6"
bxxxx 7"
bxxxxxxxx H
bxxxxxxxxxxxxxxxxxxxxxxxxxxxxxxxx ,"
bxxxxxxxx =
bxxxxxxxx !"
x2
bxxxxxxxx t
bxxxxxxxx X"
bxxxxxxxxxxxxxxxxxxxxxxxxxxxxxxxxxxxxxxxxxxxxxxxxxxxxxxxxxxxxxxxxxxxxxxxxxxxxxxxxxxxxxxxxxxxxxxxxxxxxxxxxxxxxxxxxxxxxxxxxxxxxxxxx '
bxxxxxxxx i
bxxxxxxxx M"
bxxxxxxxx ^
bxxxxxxxx B"
bxxxxxxxx S
bxxxxxxxx T
bxxxxxxxxxxxxxxxxxxxxxxxxxxxxxxxx 8"
bxxxxxxxx I
bxxxxxxxx -"
bxxxxxxxx >
bxxxxxxxx ""
bxxxxxxxxxxxxxxxxxxxxxxxxxxxxxxxxxxxxxxxxxxxxxxxxxxxxxxxxxxxxxxxxxxxxxxxxxxxxxxxxxxxxxxxxxxxxxxxxxxxxxxxxxxxxxxxxxxxxxxxxxxxxxxxx 3
bxxxxxxxx u
bxxxxxxxx Y"
x(
bxxxxxxxx j
bxxxxxxxx N"
bxxxxxxxx _
bxxxxxxxx C"
bxxxxxxxx D"
bxxxxxxxx U
bxxxx 9"
bxxxxxxxx J
bxxxxxxxx ."
bxxxxxxxx ?
bxxxxxxxx #"
bxxxxxxxxxxxxxxxxxxxxxxxxxxxxxxxxxxxxxxxxxxxxxxxxxxxxxxxxxxxxxxxxxxxxxxxxxxxxxxxxxxxxxxxxxxxxxxxxxxxxxxxxxxxxxxxxxxxxxxxxxxxxxxxx 4
bxxxxxxxx v
1Z"
0)
bxxxxxxxx k
bxxxxxxxx O"
bxxxxxxxx `
bxxxxxxxx a
bxxxxxxxx E"
bxxxxxxxx V
bxxxxxxxx :"
bxxxxxxxx K
bxxxxxxxx /"
bxxxxxxxx @
bxxxxxxxx $"
bxxxxxxxxxxxxxxxxxxxxxxxxxxxxxxxxxxxxxxxxxxxxxxxxxxxxxxxxxxxxxxxxxxxxxxxxxxxxxxxxxxxxxxxxxxxxxxxxxxxxxxxxxxxxxxxxxxxxxxxxxxxxxxxx 5
bxxxxxxxx w
b00000000000000000000000000000001 ["
0*
bxxxxxxxx l
bxxxxxxxx P"
$end
#5000
1"
0#
1/
b00000000000000000000000000000000000000000000000000000000000000000000000000000000000000000000000000000000000000000000000000000000 $
00
b00000000000000000000000000000000000000000000000000000000000000000000000000000000000000000000000000000000000000000000000000000000 %
01
b00000000000000000000000000000000 8"
b00000000000000000000000000000000000000000000000000000000000000000000000000000000000000000000000000000000000000000000000000000000 3
0(
b00000000000000000000000000000000000000000000000000000000000000000000000000000000000000000000000000000000000000000000000000000000 4
b00000000000000000000000000000010 ["
#6000
b00000000000000000000000000000000 5"
b00000000000000000000000000000000 ,"
#10000
0"
0/
#15000
b00000000000000000000000000000011 ["
1"
1/
#16000
0{
b0000 |
#20000
0"
0/
#25000
b00000000000000000000000000000100 ["
1"
1/
#26000
0&
02
#30000
0"
0/
#35000
0-
b00000000000000000000000000000101 ["
1"
1/
#40000
0"
0/
#45000
b00110111011010100100011110101111001101110110101001000111101011110011011101101010010001111010111110110110101010000101100111010100 ,
1*
1#
b00110111011010100100011110101111001101110110101001000111101011110011011101101010010001111010111110110110101010000101100111010100 %
11
b00110111011010100100011110101111001101110110101001000111101011110011011101101010010001111010111110110110101010000101100111010100 4
b00000000000000000000000000000110 ["
1"
1/
#50000
0"
0/
#55000
b00000000000000000000000000000000000000000000000000000000000000000000000000000000000000000000000000000000000000000000000000000000 ,
0*
0#
b00000000000000000000000000000000000000000000000000000000000000000000000000000000000000000000000000000000000000000000000000000000 %
01
b00000000000000000000000000000000000000000000000000000000000000000000000000000000000000000000000000000000000000000000000000000000 4
b00000000000000000000000000000111 ["
1"
1/
#56000
b01100011 0"
b00000000000000000000000000000000 6
b00000000 1"
b00000000000000000000000000000000 7
b01100011 2"
b00000000000000000000000000000000 8
b00000000 3"
b00000000000000000000000000000000 9
b00110111011010100100011110101111001101110110101001000111101011110011011101101010010001111010111110110110101010000101100111010100 :
b01100011 4"
b00000000000000000000000000000000 *"
b01100011011000110110001101100011 +"
b0000 6"
b0001 7"
b00000000 -"
b01100011 ."
b00000000 /"
b00000001000000000000000000000000 5"
b00000001000000000000000000000000 ,"
1{
#60000
0"
0/
#65000
b0001 9"
b00000010000000000000000000000000 8"
b00000000000000000000000000001000 ["
1"
1/
#66000
b11001011 Q"
b11000010 b
b01101010 F"
b11100100 W
b10011010 ;"
b11111001 L
b01101010 A
b10001110 x
b10101011 m
b01000011 n
b10101111 R"
b10100000 c
b00000010 G"
b11101101 X
b00110111 <"
b11001001 M
b10101000 B
b00100101 y
b00101101 o
b01111001 S"
b10100000 d
b10101000 H"
b01000110 Y
b10011010 ="
b00100001 N
b01000111 C
b10000010 z
b10100001 p
b10101111 T"
b10100000 e
b11000010 I"
b11100001 Z
b00110111 >"
b01001110 O
b01000111 D
b10010000 ("
b10000111 q
b01111001 U"
b11001011 f
b01000111 J"
b10011010 [
b10011010 ?"
b11000010 P
b01000111 E
b01001000 )"
b00110111 ;
b11000001001011010001101110000111 }
b11001000 r
b10101111 V"
b01111001 g
b10100000 K"
b10011010 \
b10110110 @"
b11100100 Q
b01011001 F
b10101111 G
b00110111 <
b10011010 ~
b00011011 s
b01111001 W"
b01111001 h
b01000111 L"
b10011010 ]
b01001110 A"
b10101011 R
b10101111 H
b00110111 =
b00000010 !"
b10011110 t
b11010100 X"
b01111001 i
b10100000 M"
b01001110 ^
b01101010 B"
b01111000 S
b11111101 T
b10101111 I
b10110110 >
b10100000 ""
b10001000 u
b01001000 Y"
b01001000 j
b01000111 N"
b00000010 _
b00000010 C"
b01101010 D"
b11101011 U
b11010100 J
b01101010 ?
b01001000 #"
b10011100 v
b11000001 k
b10100000 O"
b00000010 `
b00000010 a
b00000010 E"
b11111111 V
b00110111 :"
b10100011 K
b01101010 @
b10000111 w
b10011011 l
b01011001 P"
b11111011 0"
b01100010011000110110001101100011 6
b01100011 1"
b01100010011000110110001101100011 7
b11111011 2"
b01100010011000110110001101100011 8
b01100010 3"
b01100010011000110110001101100011 9
b10101010 4"
b01100010011000110110001101100011 *"
b11111011111110111111101110101010 +"
b0001 6"
b0010 7"
b01100011 -"
b11111011 ."
b01100011 /"
b00000010000000000000000000000000 5"
b00000010000000000000000000000000 ,"
0{
#70000
0"
0/
#75000
b0010 9"
b00000100000000000000000000000000 8"
b00000000000000000000000000001001 ["
1"
1/
#76000
b11111000011000011100001100101011111110000110000110101000000110101111100010100001110000110001101000101100011000011100001100011010 '
b11111000011000011100001100101011111110000110000110101000000110101111100010100001110000110001101000101100011000011100001100011010 5
b00010110 Q"
b01100010 b
b11100100 F"
b11110000 W
b00001010 ;"
b00010100 L
b11100100 A
b00011101 x
b11101110 m
b10011110 n
b11100100 R"
b10111100 c
b01101001 G"
b10110111 X
b11111001 <"
b01110101 M
b10101011 B
b00001000 y
b10011000 o
b01101001 S"
b01010100 d
b10101011 H"
b11000001 Y
b10011001 ="
b01100111 N
b01111000 C
b11010011 z
b00011000 p
b11101101 T"
b11101001 e
b01100010 I"
b01111001 Z
b11001001 >"
b00000000 O
b11111101 D
b11101011 ("
b10010011 q
b01010101 U"
b00010110 f
b01111000 J"
b00001010 [
b11011101 ?"
b11100011 P
b11101011 E
b11111000 )"
b10100011 ;
b01101010100110001111010100111001 }
b00000101 r
b01000110 V"
b01101001 g
b10111100 K"
b10011001 \
b00100001 @"
b00001011 Q
b11111111 F
b11100100 G
b11111001 <
b00001010 ~
b11110101 s
b01011010 W"
b01010101 h
b11111101 L"
b11011101 ]
b11111101 A"
b11111110 R
b11101101 H
b11001001 =
b00100101 !"
b01100111 t
b11100001 X"
b01011010 i
b01010100 M"
b11111101 ^
b01001110 B"
b01101101 S
b10011100 T
b01000110 I
b00100001 >
b11101001 ""
b00100011 u
b11111000 Y"
b11111000 j
b11101011 N"
b00101111 _
b00101111 C"
b11000010 D"
b10111011 U
b11100001 J
b01001110 ?
b11111000 #"
b10010100 v
b01101010 k
b11101001 O"
b00100101 `
b01101001 a
b00100101 E"
b01101111 V
b10100011 :"
b11110001 K
b11000010 @
b00111001 w
b11101101 l
b11111111 P"
b00001111 0"
b10011011100110001001100011001001 6
b10101010 1"
b11111001111110111111101110101010 7
b10101100 2"
b10011011100110001001100011001001 8
b11111001 3"
b11111001111110111111101110101010 9
b10011001 4"
b11111001111110111111101110101010 *"
b00001111000011111010110010011001 +"
b0010 6"
b0011 7"
b11111011 -"
b00001111 ."
b11111011 /"
b00000100000000000000000000000000 5"
b00000100000000000000000000000000 ,"
#80000
0"
0/
#85000
b11111000011000011100001100101011111110000110000110101000000110101111100010100001110000110001101000101100011000011100001100011010 .
b0011 9"
b00001000000000000000000000000000 8"
b00000000000000000000000000001010 ["
1"
1/
#86000
b10010001101111010111000100110001011000001001001011101101110000110100011011111010001001001001110000000100110101001010111111110000 '
b10010001101111010111000100110001011000001001001011101101110000110100011011111010001001001001110000000100110101001010111111110000 5
b10101000 Q"
b10111011 b
b00001011 F"
b00100100 W
b10100001 ;"
b11011111 L
b00001011 A
b10010101 x
b01100010 m
b00010010 n
b11110000 R"
b00111100 c
b00101011 G"
b01101111 X
b00010100 <"
b10010000 M
b11111110 B
b01110010 y
b00010000 o
b10001100 S"
b11011110 d
b11111110 H"
b01000001 Y
b11111010 ="
b00011001 N
b01101101 C
b11011001 z
b11000011 p
b10110111 T"
b11101010 e
b10111011 I"
b01000000 Z
b01110101 >"
b10000111 O
b10011100 D
b01110111 ("
b00011101 q
b10101001 U"
b10101000 f
b01101101 J"
b10100001 [
b10011101 ?"
b10101111 P
b10111011 E
b10110110 )"
b11110001 ;
b00110110000100001011111001110100 }
b01000010 r
b11000001 V"
b10001100 g
b00111100 K"
b11111010 \
b01100111 @"
b11101001 Q
b01101111 F
b11110000 G
b00010100 <
b10100001 ~
b10111110 s
b01111000 W"
b10101001 h
b10011100 L"
b10011101 ]
b10000101 A"
b01001101 R
b10110111 H
b01110101 =
b00010001 !"
b00010101 t
b01111001 X"
b01111000 i
b11011110 M"
b10000101 ^
b00000000 B"
b10001010 S
b11011010 T
b11000001 I
b01100111 >
b11101010 ""
b10111110 u
b10110110 Y"
b10110110 j
b10111011 N"
b01100011 _
b01100011 C"
b11100011 D"
b11101001 U
b01111001 J
b00000000 ?
b10110110 #"
b11001001 v
b00110110 k
b11101010 O"
b00010001 `
b00101011 a
b00010001 E"
b01100101 V
b11110001 :"
b10100110 K
b11100011 @
b01110100 w
b10110110 l
b01101111 P"
b10010001 0"
b10010000100101110011010001010000 6
b10011001 1"
b01101001011011001100111111111010 7
b11101110 2"
b11110010111101000101011100110011 8
b00001011 3"
b00001011000011111010110010011001 9
b00101011 4"
b00001011000011111010110010011001 *"
b01110110100100011110111000101011 +"
b0011 6"
b0100 7"
b00001111 -"
b01110110 ."
b10101100 /"
b00001000000000000000000000000000 5"
b00001000000000000000000000000000 ,"
#90000
0"
0/
#95000
b10010001101111010111000100110001011000001001001011101101110000110100011011111010001001001001110000000100110101001010111111110000 .
b0100 9"
b00010000000000000000000000000000 8"
b00000000000000000000000000001011 ["
1"
1/
#96000
b00110001100001101101111011100110100100110100011101100111011101100110111101001111011010111001101010001110011011000111001011100001 '
b00110001100001101101111011100110100100110100011101100111011101100110111101001111011010111001101010001110011011000111001011100001 5
b01001101 Q"
b11100011 b
b11101001 F"
b01100010 W
b00100100 ;"
b11111001 L
b11101001 A
b10000110 x
b00101000 m
b01011110 n
b00100100 R"
b01111110 c
b00011110 G"
b00000111 X
b11011111 <"
b01011101 M
b01001101 B
b01110110 y
b11111101 o
b00110110 S"
b01010111 d
b01001101 H"
b11000100 Y
b10011110 ="
b00100000 N
b10001010 C
b00111010 z
b01000011 p
b01101111 T"
b00011110 e
b11100011 I"
b00010001 Z
b10010000 >"
b11111011 O
b11011010 D
b00010010 ("
b10010111 q
b10101000 U"
b01001101 f
b10001010 J"
b00100100 [
b01100000 ?"
b00101001 P
b11101001 E
b00001001 )"
b10100110 ;
b11010100111111010111101000011001 }
b10000000 r
b01000001 V"
b00110110 g
b01111110 K"
b10011110 \
b00011001 @"
b00001001 Q
b01100101 F
b00100100 G
b11011111 <
b00100100 ~
b01111010 s
b10000011 W"
b10101000 h
b11011010 L"
b01100000 ]
b11010100 A"
b00010001 R
b01101111 H
b10010000 =
b01111001 !"
b01000000 t
b01000000 X"
b10000011 i
b01010111 M"
b11010100 ^
b10000111 B"
b10100000 S
b01010101 T
b01000001 I
b00011001 >
b00011110 ""
b10011100 u
b00001001 Y"
b00001001 j
b11101001 N"
b00010111 _
b00010111 C"
b10101111 D"
b11011110 U
b01000000 J
b10000111 ?
b00001001 #"
b11110011 v
b11010100 k
b00011110 O"
b01111001 `
b00011110 a
b01111001 E"
b00011101 V
b10100110 :"
b00111010 K
b10101111 @
b00011001 w
b01111110 l
b01100101 P"
b00101000 0"
b11101110000001101101101001111011 6
b00101011 1"
b10000111011010100001010110000001 7
b11110001 2"
b01110101100111100100001010110010 8
b01111110 3"
b01111110100100011110111000101011 9
b11110011 4"
b01111110100100011110111000101011 *"
b10000001001010001111000111110011 +"
b0100 6"
b0101 7"
b10010001 -"
b10000001 ."
b11101110 /"
b00010000000000000000000000000000 5"
b00010000000000000000000000000000 ,"
#100000
0"
0/
#105000
b00110001100001101101111011100110100100110100011101100111011101100110111101001111011010111001101010001110011011000111001011100001 .
b0101 9"
b00100000000000000000000000000000 8"
b00000000000000000000000000001100 ["
1"
1/
#106000
b11001010011111111100010001110010000110010111010001011000101101110001010101111101001111000001101010101010100001101011100110101000 '
b11001010011111111100010001110010000110010111010001011000101101110001010101111101001111000001101010101010100001101011100110101000 5
b10100100 Q"
b10000010 b
b00001001 F"
b10110100 W
b10000000 ;"
b11011100 L
b00001001 A
b01011010 x
b00100000 m
b10000100 n
b01100010 R"
b11100000 c
b00000001 G"
b01010011 X
b11111001 <"
b10101101 M
b00010001 B
b00100111 y
b01110100 o
b10101010 S"
b11111100 d
b00010001 H"
b10011100 Y
b10011001 ="
b01110111 N
b10100000 C
b00001001 z
b11000110 p
b00000111 T"
b00011101 e
b10000010 I"
b10011001 Z
b01011101 >"
b01011010 O
b01010101 D
b00011111 ("
b10101101 q
b11000101 U"
b10100100 f
b10100000 J"
b10000000 [
b01001100 ?"
b10000010 P
b11011110 E
b10000010 )"
b00111010 ;
b01110000011101001000001000111100 }
b10101010 r
b11000100 V"
b10101010 g
b11100000 K"
b10011001 \
b00100000 @"
b01110111 Q
b00011101 F
b01100010 G
b11111001 <
b10000000 ~
b10000010 s
b00011100 W"
b11000101 h
b01010101 L"
b01001100 ]
b10110111 A"
b11100001 R
b00000111 H
b01011101 =
b10100101 !"
b00101110 t
b00010001 X"
b00011100 i
b11111100 M"
b10110111 ^
b11111011 B"
b10101001 S
b00010000 T
b11000100 I
b00100000 >
b00011101 ""
b01000001 u
b10000010 Y"
b10000010 j
b11011110 N"
b00001111 _
b00001111 C"
b00101001 D"
b00111101 U
b00010001 J
b11111011 ?
b10000010 #"
b01111111 v
b01110000 k
b00011101 O"
b10100101 `
b00000001 a
b10100101 E"
b11101101 V
b00111010 :"
b00001111 K
b00101001 @
b00111100 w
b00100100 l
b00011101 P"
b01001111 0"
b01111111001011100010101110001000 6
b10010000 1"
b11111000010001000011111000001001 7
b01100000 2"
b10001101110110100111110010111011 8
b11110011 3"
b11110011010010111001001010010000 9
b00001101 4"
b11110011010010111001001010010000 *"
b10110011010011110110000000001101 +"
b0101 6"
b0110 7"
b01001011 -"
b10110011 ."
b10010010 /"
b00100000000000000000000000000000 5"
b00100000000000000000000000000000 ,"
#110000
0"
0/
#115000
b11001010011111111100010001110010000110010111010001011000101101110001010101111101001111000001101010101010100001101011100110101000 .
b0110 9"
b01000000000000000000000000000000 8"
b00000000000000000000000000001101 ["
1"
1/
